<?xml version="1.0" encoding="utf-8"?>
<!-- Generator: Adobe Illustrator 22.1.0, SVG Export Plug-In . SVG Version: 6.00 Build 0)  -->
<svg version="1.1" id="Réteg_1" xmlns="http://www.w3.org/2000/svg" xmlns:xlink="http://www.w3.org/1999/xlink" x="0px" y="0px"
	 viewBox="0 0 414.9 84.9" style="enable-background:new 0 0 414.9 84.9;" xml:space="preserve">
<style type="text/css">
	.st0{fill:#FFFFFF;}
</style>
<g>
	<g>
		<g>
			<g>
				<path class="st0" d="M87,54.5V13h9.1v33.2h20.7v8.3H87z"/>
				<path class="st0" d="M141.5,55.2c-12.8,0-22-9.5-22-21.3v-0.1c0-11.8,9.3-21.5,22.1-21.5s22,9.5,22,21.3v0.1
					C163.6,45.5,154.3,55.2,141.5,55.2z M154.1,33.7c0-7.1-5.2-13-12.6-13S129,26.5,129,33.6v0.1c0,7.1,5.2,13,12.6,13
					c7.3,0,12.4-5.8,12.4-12.9v-0.1H154.1z"/>
				<path class="st0" d="M191.2,55.2c-12.2,0-21.3-9.4-21.3-21.3v-0.1c0-11.8,8.9-21.5,21.6-21.5c7.8,0,12.5,2.6,16.4,6.4l-5.8,6.7
					c-3.2-2.9-6.5-4.7-10.6-4.7c-7,0-12,5.8-12,12.9v0.1c0,7.1,4.9,13,12,13c4.7,0,7.6-1.9,10.9-4.9l5.8,5.9
					C203.9,52.3,199.2,55.2,191.2,55.2z"/>
				<polygon class="st0" points="228.3,37.1 228.3,37.1 233.8,23.6 239.3,37.1 239.3,37.1 246.4,54.5 255.9,54.5 238.1,12.7 
					229.7,12.7 211.9,54.5 221.2,54.5 				"/>
				<path class="st0" d="M275.7,21.4v33.1h-9.1V21.4H254V13h34.4v8.4H275.7z"/>
				<path class="st0" d="M295.8,54.5V13h9.1v41.5H295.8z"/>
				<path class="st0" d="M335.4,55.2c-12.8,0-22-9.5-22-21.3v-0.1c0-11.8,9.3-21.5,22.1-21.5c12.8,0,22,9.5,22,21.3v0.1
					C357.5,45.5,348.2,55.2,335.4,55.2z M348,33.7c0-7.1-5.2-13-12.6-13c-7.3,0-12.4,5.8-12.4,12.9v0.1c0,7.1,5.2,13,12.6,13
					S348,41,348,33.7L348,33.7z"/>
				<path class="st0" d="M394.7,54.5l-20.1-26.4v26.4h-9V13h8.4l19.4,25.5V13h9v41.5H394.7z"/>
			</g>
			<g>
				<path class="st0" d="M14.2,13.2c-3.7,0.7-3.8,5.7-1,7.2c2.5,1.3,5.7-0.4,5.7-3.5C18.9,14.4,16.8,12.7,14.2,13.2z"/>
				<path class="st0" d="M8.1,31.9h4.4c0.7-2.3,2-4.2,3.9-5.6H5.6V7.7c0-0.1,0-0.2,0.1-0.3h18.7V24c2.2,0.2,4.1,0.9,5.7,2.1
					c0-0.7,0-1.4,0-2.1V9.7c0-3,0.6-7.6-2-7.9H2c-1,0.3-1.7,1-2,2v26.1C0.5,32.7,4.9,31.9,8.1,31.9z"/>
				<path class="st0" d="M53.6,45.9v-9H49c-0.2,0.4-0.5,0.8-0.8,1.1L53.6,45.9z"/>
				<path class="st0" d="M14.6,48.1c-1.9,0.2-3,1.3-3.3,2.7c-1.3,5.1,5.8,6.6,7.4,2.6C19.7,50.5,17.4,47.8,14.6,48.1z"/>
				<path class="st0" d="M30.1,48.4l-2.9-2.7c-0.9,0.3-1.8,0.5-2.8,0.6v15.1H5.6V42.8c0-0.1,0-0.2,0.1-0.3h9.1
					c-1.4-1.5-2.3-3.5-2.7-5.6H8.3c-2.1,0-4.9-0.4-6.6,0.1c-0.9,0.3-1.5,1.1-1.8,1.9v26C0.2,66,0.9,66.6,2,67h25.8l0,0
					c2.9-0.3,2.2-4.7,2.2-8V48.4H30.1z"/>
				<path class="st0" d="M49.2,13.2c-4,0.7-3.9,6.9,0,7.5C55.3,21.7,55.4,12,49.2,13.2z"/>
				<path class="st0" d="M63.1,1.9H37c-2.8,0.5-2,4.8-2,8.4v13.3c0,0.2,0,0.4,0,0.6h5.6V7.7c0-0.1,0-0.2,0.1-0.3h18.7v18.8h-12
					c1.6,1.4,2.6,3.3,2.7,5.6h6.7c2,0,4.9,0.4,6.6-0.1c1-0.3,1.6-1.2,1.8-2.2V4.2C64.9,3,64.2,2.3,63.1,1.9z"/>
				<path class="st0" d="M46.4,66.9h6.3l0,0v-6.7h-6.2C46.3,62.3,46.5,64.7,46.4,66.9z"/>
				<path class="st0" d="M58.6,66.9H63c1.1-0.4,1.9-1.1,2.1-2.3v-4.4h-6.5C58.4,62.3,58.6,64.7,58.6,66.9z"/>
				<path class="st0" d="M59.5,36.9c-0.2,3.7,0,7.7-0.1,11.5h-5.9V46H41.4H41h-6v12.6c0,3.4-0.8,7.8,2.1,8.4h3.4
					c0.1-5.6-0.1-11.5,0.1-16.9c1.9,0.1,4-0.1,5.8,0.1v4.2H65c0.1-2.6-0.1-5.4,0.1-7.9v-7.2C65,36.8,62.3,36.7,59.5,36.9z"/>
			</g>
			<g>
				<path class="st0" d="M357.5,33.7c0-12.2-9.9-22-22-22c-12.2,0-22,9.9-22,22c0,5,1.7,9.5,4.5,13.2h-0.1l17.6,30.8l17.6-30.8H353
					C355.7,43.2,357.5,38.7,357.5,33.7L357.5,33.7z M335.4,42.5c-4.9,0-8.8-3.9-8.8-8.8s3.9-8.8,8.8-8.8s8.8,3.9,8.8,8.8
					C344.2,38.6,340.3,42.5,335.4,42.5L335.4,42.5z"/>
			</g>
			<g>
				<path class="st0" d="M370.9,73.7c0-6.5-13.9-9.2-19.8-10.1c-0.9-0.1-1.7,0.5-1.8,1.4c-0.1,0.9,0.5,1.7,1.4,1.8
					c12.4,1.8,17.1,5.2,17.1,6.9c0,3.2-12.6,7.9-32.3,7.9s-32.3-4.7-32.3-7.9c0-1.7,4.6-5,16.9-6.8c0.9-0.1,1.5-1,1.4-1.8
					c-0.1-0.9-0.9-1.5-1.8-1.4c-5.9,0.9-19.7,3.6-19.7,10.1c0,7.3,17.8,11.2,35.5,11.2S370.9,81,370.9,73.7L370.9,73.7z"/>
			</g>
		</g>
		<g>
			<path class="st0" d="M29.4,43l-1.6-1.5c-1.3,0.8-2.8,1.3-4.4,1.3c-4.6,0-7.9-3.4-7.9-7.6l0,0c0-4.2,3.3-7.7,7.9-7.7
				s7.9,3.4,7.9,7.6l0,0c0,1.5-0.5,3-1.3,4.3l1.5,1.3L29.4,43z M27.9,35.1c0-2.5-1.9-4.7-4.5-4.7s-4.5,2.1-4.5,4.6l0,0
				c0,2.5,1.9,4.7,4.5,4.7c0.7,0,1.4-0.1,2-0.4l-2.4-2l2-2.3l2.4,2.2C27.8,36.6,27.9,35.9,27.9,35.1L27.9,35.1z"/>
			<path class="st0" d="M43.2,42.5L40,37.8h-2.6v4.8h-3.3V27.7H41c3.5,0,5.6,1.8,5.6,4.9l0,0c0,2.4-1.3,3.9-3.2,4.6l3.6,5.3H43.2z
				 M43.3,32.7c0-1.4-1-2.1-2.6-2.1h-3.2v4.3h3.3C42.4,34.9,43.3,34,43.3,32.7L43.3,32.7z"/>
		</g>
	</g>
	<g>
		<path class="st0" d="M413.8,1.1c-0.7-0.7-1.6-1.1-2.6-1.1l0,0c-2.1,0-3.7,1.7-3.8,3.7c0,2.1,1.7,3.8,3.7,3.8l0,0
			c2.1,0,3.7-1.7,3.8-3.7C414.9,2.8,414.5,1.8,413.8,1.1z M411.1,7.1L411.1,7.1c-1.9,0-3.4-1.5-3.4-3.4c0-1.8,1.5-3.3,3.4-3.3l0,0
			c0.9,0,1.7,0.4,2.4,1c0.6,0.6,1,1.5,1,2.4C414.5,5.6,413,7.1,411.1,7.1z"/>
		<path class="st0" d="M412,4.1c-0.1-0.1-0.2-0.1-0.3-0.2c0.3,0,0.6-0.2,0.8-0.3c0.2-0.2,0.2-0.4,0.3-0.6c0-0.2,0-0.4-0.1-0.5
			c-0.1-0.2-0.2-0.3-0.4-0.3C412,2,411.8,2,411.4,2h-1.6v3.6h0.5V4h0.6c0.1,0,0.2,0,0.3,0c0.1,0,0.1,0.1,0.2,0.1s0.2,0.1,0.2,0.2
			c0.1,0.1,0.2,0.3,0.3,0.5l0.5,0.7h0.6l-0.6-1C412.3,4.4,412.1,4.3,412,4.1z M411.3,3.6h-1V2.4h1.1c0.3,0,0.5,0.1,0.6,0.2
			c0.1,0.1,0.2,0.3,0.2,0.4c0,0.1,0,0.2-0.1,0.3s-0.2,0.2-0.3,0.2C411.7,3.5,411.6,3.6,411.3,3.6z"/>
	</g>
</g>
</svg>
